,0
0,
1,abnormal stimuli
2,abutment teeth
3,access cavities
4,access cavity
5,access preparation
6,access preparations limit instrument
7,accessory canals
8,accurate pulpal
9,achieve patency
10,acronym slob
11,acting agents
12,acute liver failure
13,acute symptoms
14,addition silver points corrode
15,administration time
16,adult patient
17,adult teeth
18,advancing age
19,advancing caries
20,advancing lesion host responses
21,afferent nerve fibers
22,aged pulps
23,aggregatibacter actinomycetemcomitans viability
24,aging patients
25,air blasts
26,airway response
27,alter color
28,altered function
29,alternating pressures
30,alveolar bone
31,amalgam particles
32,amount
33,analysis correction
34,anatomy continuity
35,anatomy following trepanation
36,anatomy use
37,anesthesia apprehension loss
38,animal experiments
39,aontitis preservation
40,apex locators
41,apex makes delivery
42,apexification technique
43,application time
44,applying heat
45,appointment exacerbations
46,appointments following trepanation
47,are sealed using freeze
48,area adjacent
49,area damage
50,area thousands
51,areas mta
52,articaine
53,artifact patterns
54,associates ng
55,attachment apparatus
56,attachment loss
57,attempted regeneration
58,authors retention
59,b cells
60,bacteria presence
61,barriers using materials
62,base flap
63,base state
64,based cements
65,based detectors
66,based guidelines
67,based rationale
68,based sealer  cement
69,based sealer e g
70,baseresistant zone
71,bching techniques
72,be transported
73,be used blind
74,become
75,belated diagnosis
76,betel nut
77,beveled margins
78,bifurcation area
79,binding proteins
80,binding sides
81,biofilm cells
82,biofilm community
83,biofilm formation
84,biofilm structure
85,biofilms present
86,biologic structures
87,biting soreness
88,bjorndal l
89,block conduction
90,blood cells
91,blood circulation
92,blood clot formation
93,blood contamination
94,blood flow
95,blood pressure
96,blood proteins
97,blood supply
98,blood vessels
99,blunt tip
100,body reaction
101,bond betweenin
102,bond reinforce resin
103,bond strengths
104,bonded
105,bone adjacent
106,bone compartment
107,bone formation
108,bone lesion
109,bone loss
110,bone replacement grafts
111,bone resorption
112,bone resorptive mediators
113,bone structure
114,bone substitute material
115,bony defect
116,bony reaction
117,bramante technique
118,brasseler usa
119,breakage files
120,breathing exercises
121,bridge  denture
122,bur parallel
123,bur perpendicular
124,butt joint
125,butt joint margins
126,c fiber
127,calcifying potential
128,calcium hydroxide
129,calcium hydroxide weakened dentin
130,calcium hydroxide114
131,calcium metabolism
132,calcium silicate
133,calcium silicate hydrate
134,canal border
135,canal containing remnants
136,canal system
137,canal system aberrations
138,canal wall dentin erosion
139,canal wall periodontob contains
140,canal walls
141,canals being bacteria
142,canals interradicular bone
143,candidate genes
144,capping agents
145,capture information
146,carbamide peroxide
147,carbon dioxide ice
148,caries crystals
149,caries removal
150,case evaluation
151,case reports
152,case selection
153,cast post technique
154,cast restorations
155,cautery coagulation
156,cavender acgerink jd hecker
157,cavitation bubbles
158,cavity depth
159,cavity preparation
160,cavity preparations
161,cavity walls
162,cbct images
163,cbct imaging
164,cbct studies
165,cd tooth
166,cell activity
167,cell bodies
168,cell death
169,cell density
170,cell differentiation
171,cell envelope
172,cell lysis
173,cell membrane
174,cell rests
175,cell studies
176,cell survival
177,cell wall
178,cement bases
179,cemento junction cej
180,cementoenamel junction
181,ceramic bonded restorations
182,cfd model
183,chalky appearances
184,chamber show
185,changes
186,changes bony disease
187,chelating agent
188,chelating properties
189,chemical burn type
190,chemical burns
191,chemical catalysts
192,chemical changes
193,chemical composition
194,chemical irritation
195,chin region
196,chlorhexidine
197,chlorhexidine penetrates
198,chlorine ion
199,choose imagery
200,chromatid breaksatid
201,cleaning  shaping
202,clearing techniques
203,clinicians ability
204,clinicians fingers
205,clinicians inability
206,clinicians knowledge
207,cm wire
208,cns responses
209,co2 snow
210,coated post polymerizes
211,coding region
212,collagen formation
213,collagen scaffold
214,collagen scaffolds
215,colleagues speculated heat cycles
216,color alterations
217,color changes
218,colored post
219,colour changes
220,combined use
221,commonly used vasoconstrictors
222,communicating tubules
223,community profiles
224,compaction forces
225,compensated heart
226,compensating bite
227,complication is separation
228,complications including accumulation
229,concentra tions
230,concentrations chx
231,concomitant pulpal
232,condensation using increments
233,condensing instruments
234,condensing osteitis
235,cone beam computed tomography
236,conflicting information
237,conflicting results
238,conjugating photosensitizer
239,constricted pulp chamber
240,contact angle
241,containing paste
242,containing pulp
243,continued attempts
244,continued use
245,continuing research
246,contrast imaging modality
247,control groups
248,control hemorrhage
249,controlled reflection
250,contusion injuries
251,convection transport
252,conversion rate
253,cooling phases
254,core diameter  flute depth
255,core dimensions
256,core material
257,core materials
258,core systems
259,core taper
260,cotton fibers
261,cotton pellet
262,cotton pliers
263,counteract microorganisms
264,counterclockwise rotation
265,coverage restorations
266,craze lines
267,create ledges
268,crystalline structure
269,ct imaging
270,ct scanners
271,culture medium
272,cupping artifact
273,curved canals
274,cutting ability
275,cutting blade
276,cutting edge
277,cutting efficacy
278,cutting efficiency
279,cutting portion variations
280,cytoplas organelles changes
281,d hand instruments
282,danger zone
283,darker hue
284,data accumulation
285,db canals
286,decrease
287,decreased bond strength
288,decreased pain
289,dedicated strategies
290,deepest caries
291,defence mechanisms
292,defense cells
293,defense factors
294,defense mechanisms
295,degree push
296,delay microsurgery
297,delayed healing
298,delivery method
299,delivery rates
300,delivery systems
301,delivery tips
302,delta nerve fibers
303,demonstrate pulpal
304,dens evaginatus
305,dens invaginatus
306,dense mass
307,dense substance
308,dent lines
309,dental papilla
310,dental procedures
311,dental radiography
312,dentin bonds
313,dentin deformation
314,dentin differences
315,dentin environment
316,dentin formation
317,dentin particles
318,dentin particles host
319,dentin protrusions
320,dentin shavings
321,dentin thickness
322,dentin wall
323,dentine tubule permeability
324,dentist becomes
325,dentsply
326,dentsply  maillefer
327,design
328,design developments
329,designed access cavity
330,destroy components
331,detector dye
332,devastating caries
333,device vibrates
334,diameter instruments
335,diameter volume
336,diamond coating
337,dicom conformance statement
338,dictating species
339,differing frequencies
340,differing widths
341,diffuse radiopaqueion
342,dilute naocl
343,diminished symptoms
344,directed pressures
345,discoloration increased interest
346,discoloration potential
347,disease etiology
348,disease process
349,disinfecting solutions
350,disorders depression
351,dispositions towards information
352,dissolution
353,dissolution rates
354,dissolving effect
355,dissolving effectiveness
356,distortion errors
357,do nothing risk treatment
358,documented impact
359,dr yamanka
360,dsouza rn
361,duration anesthesia
362,e g
363,edta
364,edta exposure
365,effect fluid movement
366,effect relationship
367,effects biologic
368,elasticity pseudoelasticity
369,electrode material
370,electrolyte flow
371,element analyses
372,element analysis
373,elevated tissue pressure
374,enamel hypoplasia
375,enamel junction
376,enamel matrix formation
377,end closure
378,end filling
379,end filling materials
380,end preparations
381,end resection
382,ended access bur
383,ended device
384,endo z
385,energy level
386,enhanced debridement
387,enhanced magnification
388,enhanced visualization equipment
389,enlargement
390,enterococus faecalis
391,entry microbes
392,environments using culture
393,ept readings
394,essay forms
395,estimated risk
396,etching capability
397,etching system
398,eugenol cement
399,evaluating samples
400,evaluation radiolu
401,evaluator bias
402,evidence tissue
403,excitation energy
404,existing oxygen
405,existing restorations
406,expands dentin
407,expert consult
408,exploratory surgery
409,exposed canal system
410,exposed images
411,exposed pulp
412,exposure site
413,exposure source
414,expression hemorrhage
415,extended periods
416,extrusion accident
417,extrusion pressures
418,eye contact
419,fabrication root
420,fact variations
421,factor xii
422,factors choice
423,factors concentration
424,factors overpreparation
425,failing restorations
426,features modifications
427,feed rate
428,file begin
429,file diameter
430,file increases
431,file separation
432,file stress
433,file tip
434,files dentin particles
435,files induce strain
436,filled roots
437,filled teeth
438,filling material
439,filling materials
440,filling procedures
441,filling technique encouraged clinicians
442,filling techniques
443,film placement
444,film thickness
445,finger pressure
446,flared shapes
447,fluid accumulates
448,fluid environment
449,fluid movement
450,fluid pressure
451,flute angle
452,follows heart contractions
453,foramen inflammation
454,force squeezing objects
455,forced eruption
456,form biofilms
457,form calcium hydroxide
458,form dentin
459,form hydroxyapatite
460,forms delays
461,fracture blocks
462,fracture resistance
463,fracture space
464,fracture susceptibility
465,frequency vibrations
466,friction connection
467,functioning sense
468,furcation area
469,furcation involvement
470,furcation openings
471,furcation perforation
472,g calcium hydroxide
473,g fibres
474,gag chains
475,gain access
476,gain space
477,gap junctions molecules
478,gas entrapment
479,gene expression patterns
480,generalized thinning
481,gg instruments
482,gingival margin
483,ginseng products ginseng
484,give rise
485,glass ionomer cements
486,glidden drill
487,glycation end
488,gonon post removing system
489,government spending
490,gp points
491,gp towards
492,granulation tissue
493,grinding wheel
494,groove extension
495,groove surface infolding
496,ground state
497,group foramen
498,growth collapse
499,growth factor
500,growth factors
501,gutta percha
502,gutta percha burnished resection
503,h
504,habitat range
505,half sizes
506,hand files
507,hand instrumentation
508,hand plugger
509,handling properties
510,have markings
511,have posts
512,header fields
513,healing process
514,healing rates
515,health care spending imposing caps
516,health conditions
517,heart disease
518,heart rate
519,heat disseminating effect
520,heat plasticizes
521,heated instruments
522,hedstrom file
523,heightened levels
524,helix angle
525,hepatitis b
526,hero shaper rotaries differences
527,hinders repair
528,hjortdal o
529,holds water
530,host defense forces
531,host immune responses
532,host resistance
533,host response
534,host responses
535,host susceptibility
536,house debris
537,hybridization fish clone
538,hybridization fluorescence
539,hydrogen peroxide
540,hydroxyl ions
541,hydroxyl radicals
542,hygiene regimens
543,hypodense halo
544,il8
545,image capture
546,image manipulation
547,image processing
548,image receptor
549,imaging dilemmas
550,imaging sciences
551,immature confounding factors
552,immature dcs
553,immature tooth
554,immune system
555,impact trauma
556,improved knowledge
557,improvement decrease
558,incision line
559,inciting irritants
560,includes intermittent
561,including age
562,including carbon fiber
563,increase cases
564,increased accuracy determining working length measurements
565,increased age
566,increased attentiveness
567,increased awareness
568,increased blood supply
569,increased chance
570,increased cutting efficiency reduced  risk
571,increased dislocation
572,increased excitability
573,increased flexibility
574,increased flute
575,increased membrane permeability
576,increased porosity
577,increased productivity
578,increased proinflammatory signalling
579,increased resistance
580,increased solubility
581,increased spreading
582,increased stiffness
583,increased strain
584,increased survival rate
585,increased susceptibility
586,increased susceptibility fracture
587,increased taper
588,increased tissue pressure
589,increased volumes
590,increasing age
591,increasing frequency
592,increasing pain
593,indiscriminate removal
594,individuals buildup
595,infected affected dentin
596,infected rcs self aggre
597,infected root canals
598,infection craze
599,inflamed tissue have altered resting potentials
600,inflammation e g
601,inflammation induces increased excitability
602,inflammation infection
603,inflammation present
604,inflammatory changes
605,inflammatory mechanism
606,inflammatory milieu
607,inflammatory processes
608,inflammatory resorption
609,inflammatory response
610,inflammatory root resorption
611,inflammatory stimulus
612,initiation perpetuation
613,injecting sodium hypochlorite
614,injection
615,insertion
616,instrument access
617,instrument bending
618,instrument core
619,instrument design
620,instrument designs
621,instrument developments include variations
622,instrument fragment
623,instrument induces
624,instrument ingestion
625,instrument type
626,instrumentation short
627,instrumentation technique
628,instrumentation techniques
629,instrumenting short
630,insufficient cleaning
631,insurance companies access
632,intermittent increases
633,involved pulps
634,ionomer cements
635,iron sulfides
636,irrigant penetration
637,irrigating solutions
638,irrigation solution
639,irritating materials
640,irritation
641,irritation factors
642,irritation inflammation
643,is termed dentine mud
644,k file
645,kidney disease
646,la axxess file
647,laboratory studies
648,lamina dura
649,land width
650,langley ok
651,laser energy
652,laser irradiation
653,laser penetration
654,laser settings
655,lasting anaesthesia
656,lateral incisor
657,leakage pattern
658,leakage studies comparing diaket
659,leaving debris
660,leaving pulp stones
661,leaving undercuts
662,led lamps
663,left areas
664,lesion becomes
665,lethal cell injury
666,level pain
667,levels success
668,lifting force
669,ligament cells
670,limit visibility
671,line access
672,line access factors
673,line channel
674,linked gp
675,liquefaction necrosis
676,lived substances
677,localized hemorrhage
678,localized inflammation
679,localized ischemia
680,locating canals
681,locations example closer
682,longstanding exposure
683,loss dehydration
684,lost time
685,lumen dimensions
686,lunch box
687,luting cement removal
688,luting material
689,luxation injuries
690,lx file
691,m files
692,maintaining patency
693,maintaining pressure
694,make use
695,mandibular teeth
696,manufacturing process
697,manufacturing process variables
698,map system
699,margin impression
700,marked delays
701,marketing program
702,master cone
703,master radicular file size clinicians level
704,material binds
705,material radio
706,material root resorptions
707,materials core placement composite
708,matrix polysaccharides
709,matrix proteins
710,maturation tissue
711,maxilla longacting agents
712,mb root
713,medications calcium hydroxide
714,melting ice
715,membrane configuration
716,mepivacaine
717,mercury content
718,messenger rna
719,metal carpules containing injectableta
720,metal carrier
721,metal casting
722,metal clamp
723,metal ions
724,metal posts
725,metal spreader
726,method manipulating gutta
727,methylene blue
728,microbiota
729,micrograph showing clusters
730,microscopic gap
731,mimic fracture lines
732,min
733,mineralization defects
734,mineralizing cell types
735,minute tooth fragments
736,mirror handle
737,misdirected injection
738,misdirected pressure
739,missed root canals
740,mix syringes
741,mixing ratio
742,mm increments
743,mm radius cylinder
744,model system
745,modified photosensitizers
746,moisture control measures
747,moisture loss
748,molecules  ions
749,molecules growth factors
750,monitoring degrees
751,monoculture biofilm
752,months removal
753,morita corporation
754,morphology database
755,morphology evaluation
756,morphology information tooth
757,morphology variations
758,mouth descriptions
759,mrna encoding b1
760,mta ph
761,mucoperiosteal flap
762,mucosa fat
763,multispecies communities
764,multistep process
765,muscle weakness
766,naocl
767,nerve block injection
768,nerve cells
769,nerve damage
770,nerve fibers
771,nerve impulses
772,nerve response
773,neuropeptides neuroplasticity
774,nickeltitanium instruments
775,noise ratio
776,none
777,notches ground
778,obliteration metamorphosis
779,observation period
780,obtura ii
781,obturating filling materials
782,obturation complications
783,obturation length control
784,obturation material
785,obturation materials
786,obturation section
787,occlusal table
788,occlusal trauma
789,odontoblast layer
790,odontoblast processes
791,offending root
792,oftentimes removal
793,ongoing bone healing process
794,onlay restorations
795,operating microscope
796,operating microscopes
797,operative flare
798,order thinking
799,orifice location position
800,oscillating movements
801,outer membranes
802,outward fluid movements
803,oxidation capabilities
804,oxygen carrier
805,oxygen consumption
806,oxygen content
807,oxygen radicals
808,oxygen species
809,oxygen tension
810,pa radiography
811,pain including heat sensitivity
812,pain management strategies
813,pain processing neurons
814,pain production
815,pain relief
816,pain response
817,pain responses
818,pain threshold
819,palatal vault
820,paper cones
821,paper points
822,paradigm shift
823,paraformaldehydecontaining paste
824,paralleling technique reduces
825,party payers
826,passage millions
827,patency filing
828,pathoses bacteria
829,patient
830,patient applies pressure
831,patient assessment
832,patient characteristics
833,patient feels
834,patient group
835,patient knowledge
836,patient motion
837,patients  operators eyes
838,patients age
839,patients complaint
840,patients complaints
841,patients increased abilities
842,patients preferences
843,patients sense
844,pellet forming block
845,pentron corp
846,perature increases
847,percha cone
848,percha mass
849,percha polymer
850,percha removal instrument
851,percha simplifill
852,percha using heat
853,perform wedging
854,perio lesions
855,periodontal abscesses
856,periodontal lesion
857,periodontal ligament
858,periodontal pocket
859,periodontal treatment
860,permanent teeth
861,persist evade host defense strategies
862,persistent pain
863,persistent symptoms
864,persons personality
865,phagocyte function
866,phenol preparation cmcp
867,phenotypic heterogeneity
868,phenotypic variations
869,photosensitizer formulation
870,photosensitizer results
871,photosensitizer triplet state
872,pigment configuration
873,pilot channel preparation
874,plasma catecholamines
875,plasma membrane proteins
876,plastic hub
877,plastic substance
878,platelet adhesion
879,platelet aggregation
880,pointed tip
881,polymer chains
882,polymer pin
883,pool outcome data
884,pooled data
885,positioned barbs
886,post design
887,post placement
888,post prepara
889,post preparation
890,post removal
891,post space
892,post space preparation
893,postoperative pain
894,posts ability
895,posts adhesion
896,posts designs
897,practices reputation
898,precise planning
899,predicting success
900,predisposing factor
901,premature exposure
902,preparation cut
903,preparation size
904,preparation techniques
905,preparation time
906,preparing isthmus
907,presence
908,pressure changes
909,pressure injury
910,pressure irrigation
911,pressure sterilizers
912,prevent clogging
913,prevent extrusion
914,price cultured materials
915,probing defects
916,procedures loss
917,process swelling
918,production goals
919,professional development
920,profile gt series
921,profuse watering
922,prognosis root
923,progression breakdown
924,proinflammatory neuropeptides
925,projection geometry
926,proliferation survival
927,promote devitalization
928,proroot mta
929,prostaglandin levels
930,prosthesis failure loss
931,protaper files
932,proteins adhesion
933,provide space
934,providers preference
935,proxy changes
936,pterygoid muscles
937,pull motion typical
938,pulp anatomy
939,pulp axotomy
940,pulp canals
941,pulp capping
942,pulp capping material
943,pulp capping model
944,pulp cell migration
945,pulp cells
946,pulp chamber
947,pulp chamber darker
948,pulp chamber floor
949,pulp chamber roof
950,pulp chambers
951,pulp contains odontoblasts
952,pulp damage
953,pulp exposures
954,pulp floor
955,pulp floor map
956,pulp horn
957,pulp inflammation
958,pulp morphology
959,pulp necrosis
960,pulp pathologies
961,pulp periods
962,pulp progenitor cells
963,pulp protection
964,pulp reactions
965,pulp region subjacent
966,pulp shaper bur
967,pulp space
968,pulp space anatomy
969,pulp space extent
970,pulp space infection
971,pulp stem cells
972,pulp stem cells
973,pulp succumbs
974,pulp tester
975,pulp tests
976,pulp therapy
977,pulp tissue
978,pulp treatment
979,pulp volume
980,pulpal anesthesia
981,pulpal infection
982,pulpitis periodontitis
983,pulpless teeth
984,pulplike tissues
985,pulpotomy technique
986,pulps ability
987,pulsation energy
988,pulse duration
989,purchase point
990,purulent exudate
991,quality andulation
992,quantum size effect
993,quorum sensing coordinated regulation
994,r
995,r change
996,r channels
997,race fileeded segments
998,race files
999,radiation dose
1000,radiation exposure
1001,radicular biofilm
1002,radiolucency steplike
1003,radiolucency visible
1004,radiolucency years
1005,radiolucent bone lesions
1006,radiopaque filling materials
1007,radiopaque materials
1008,rake angle
1009,rapid loss
1010,rbcs contract
1011,rc biofilms
1012,reaction product mta
1013,reaction rate
1014,recall rate
1015,recall rates
1016,record mistakes
1017,recording comparison
1018,records desirabletransparency
1019,reduce file stresses
1020,reduced activation
1021,reduced inflammation
1022,reduced preparation time
1023,reduction
1024,reduction limit
1025,referring doctors
1026,reflux space
1027,regeneration reduction persistence
1028,regulate gene expression
1029,reinforced zinc
1030,release calcitonin generelated peptide
1031,release proinflammatory molecules
1032,release reaction activation
1033,remaining dentin walls
1034,remaining tooth structure
1035,remainingin thickness
1036,remove debris
1037,remove gutta
1038,removed file fragment
1039,removing gutta
1040,repeated loading
1041,repetition frequencies
1042,repetition rate
1043,replacement material
1044,replacement resorption
1045,replantation procedure
1046,report basic data
1047,reported association
1048,reported foramina
1049,require removal
1050,resected root
1051,resin cement
1052,resin cements
1053,resin composites
1054,resin core
1055,resin volume
1056,resistance form
1057,resistance fracture
1058,resistance genes
1059,respiratory infections
1060,ress accessory nerve fibers
1061,restoration material
1062,restoration root
1063,restoration theian
1064,restorative options
1065,restoring force
1066,resultant increased pressure
1067,resulting puru
1068,retained irrigant
1069,retreatment files
1070,retromolar fossa
1071,retropharyngeal space
1072,retroplast root
1073,reverse screw configuration
1074,risk factors
1075,risk patient
1076,rollins introducedta percha
1077,root anatomy
1078,root apex
1079,root apices
1080,root canal
1081,root canal filling
1082,root canal system
1083,root canal wall
1084,root canals
1085,root canaltreated teeth
1086,root cracks
1087,root dentin
1088,root development
1089,root dimensions
1090,root distortion
1091,root filling
1092,root filling materials
1093,root fillings
1094,root fracture
1095,root fractures
1096,root growth
1097,root halves
1098,root length
1099,root morphology
1100,root obturation
1101,root outline
1102,root perforations
1103,root planning
1104,root resection
1105,root resorption
1106,root sensitivity
1107,root shape
1108,root sheath
1109,root structures
1110,root surface
1111,root surface heat
1112,root surface temperature
1113,root system
1114,root thinning
1115,root tip
1116,root trunk
1117,root walls
1118,root weakening
1119,rooted teeth
1120,rotation short
1121,round canal cross
1122,round cross
1123,round excavations
1124,s curve
1125,safety guidelines
1126,sample size
1127,scanning electron microscopy studies
1128,scanning electron microscopym
1129,scar tissue
1130,sclerosis beneath
1131,sealer paste
1132,sealer pools
1133,sealers silicatebased cements
1134,sealing materials
1135,section design
1136,section reamer
1137,selecting dpscs
1138,sensation paresthesia
1139,separated particles
1140,sequester diand
1141,setting process
1142,setting properties
1143,setting time
1144,severe injuries
1145,shaft diameter
1146,shape introduce root filling materials
1147,shape round
1148,shaping files
1149,shaping instruments
1150,sheath breaks
1151,shifting interactions
1152,shortened file
1153,shorter instruments
1154,signaling molecules
1155,signs indicative
1156,silver color
1157,silver point
1158,silver points
1159,sinus tract
1160,sinus tracts
1161,siqueira et
1162,situ design
1163,size  surface area
1164,size irrigation probe
1165,sized breach
1166,sodium channels
1167,sodium hypochlorite
1168,sodium hypochlorite
1169,sodium perborate
1170,softened gp
1171,softened strips
1172,somatosensory system
1173,sometimes separation
1174,sound dentine fig
1175,space instrument breakage straight entry
1176,spark erosion
1177,speed bur
1178,speed cavity preparation
1179,split teeth
1180,square cross
1181,stabident fairfax
1182,stagnation zone
1183,stainless steel
1184,stainless steel files
1185,starvation modalities
1186,state reinfection
1187,status making
1188,steel crowns
1189,stem cell markers
1190,stem cell survival
1191,stem cells
1192,step apexification
1193,stepwise reduction
1194,steroid production
1195,stimuli g car
1196,storage medium
1197,straighten canals
1198,strain distribution
1199,streak artifacts
1200,stress concentration
1201,stress forces
1202,stripped tip
1203,stripping perforation
1204,studies evaluating benefits
1205,studies involving cavity preparations
1206,studies molars influence
1207,studies using microcomputed tomography
1208,study everett
1209,substance p
1210,substance removal
1211,subtraction radiography
1212,success failure
1213,success rate
1214,success rates
1215,suction tips
1216,sun exposure
1217,superimposition
1218,supporting structures
1219,supporting tissues
1220,supraperiosteal infiltration
1221,surface architecture
1222,surface area
1223,surface areas
1224,surface film
1225,surface layers
1226,surface proteins
1227,surface quality
1228,surface tension
1229,surgeon use
1230,surrounding bone tissue
1231,surrounding tissue
1232,surrounding tissues
1233,synchronized response
1234,system
1235,system isthmuses
1236,systems contract
1237,systems devices
1238,systems files
1239,t allele
1240,take care
1241,takes time
1242,tapered instrument
1243,tapered walls
1244,technique factors
1245,technologies using computer reconstruction
1246,teeth types
1247,teflon blocks
1248,temperature increase
1249,temperature reduction
1250,tensile force
1251,tensile strength
1252,term contact
1253,term exposure
1254,term maintenance
1255,term prognosis
1256,term retention
1257,term seal
1258,term solution
1259,term synthesis
1260,term treatment
1261,term use
1262,terminology varies
1263,test data
1264,test environment
1265,test results
1266,testing environments
1267,tests reliability
1268,thermoplasticized gutta
1269,things paperless
1270,thinwalled vessels
1271,threatening cellulitis
1272,threshold properties
1273,tilted teeth
1274,time constraints
1275,time lapse
1276,time sequence
1277,tip diameter
1278,tip dimensions
1279,tip portion
1280,tip size
1281,tissue adjacent
1282,tissue barriers
1283,tissue capsule
1284,tissue changes
1285,tissue complex
1286,tissue coronal
1287,tissue creating pathway
1288,tissue damage
1289,tissue destruction
1290,tissue dissolving
1291,tissue engineering triad
1292,tissue fluid
1293,tissue fluids
1294,tissue following decay
1295,tissue formation
1296,tissue infections
1297,tissue loss fig
1298,tissue necrosis
1299,tissue necrosis elevated cell proliferation
1300,tissue remnants
1301,tissue residues
1302,tissue retraction
1303,tissue trauma
1304,titanium titanium
1305,tlr4  cd14
1306,todays technology
1307,toluidine o
1308,tooth buds
1309,tooth development
1310,tooth preparation
1311,tooth structure
1312,tooth type
1313,tooth wear
1314,toxic products
1315,transform clinicians
1316,transition zone
1317,translator motion
1318,transparent block
1319,transport routes
1320,trauma causing
1321,treated teeth
1322,treatment
1323,treatment complications
1324,treatment decision
1325,treatment options
1326,treatment planning
1327,treatment planning decisions
1328,treatment procedures
1329,treatment recommendations
1330,treatment threshold
1331,trephine bur
1332,tricalcium cement
1333,tricalcium oxide
1334,tricalcium phosphate
1335,tricalcium silicates
1336,trioxide aggregate
1337,twisting deformation
1338,type files
1339,used root
1340,using dpscs
1341,using monkeys
1342,values needs
1343,vapor bubble
1344,varying techniques
1345,vascular supply
1346,vascularity cell content
1347,venting groove
1348,vibrating handpiece
1349,vibrating plastic filament
1350,vibrating syringes
1351,vibration systems
1352,view cone beam computed tomography
1353,vision deficits
1354,visit apexification
1355,visualization subtle
1356,vital pulp
1357,vitro data
1358,vitro studies
1359,volume
1360,voxel size
1361,vrfs develop
1362,wachs sealer
1363,wall contact
1364,wall dimension
1365,wall instrumentation
1366,warm gutta
1367,warrant express
1368,water coolant
1369,water spray
1370,waveone gold
1371,wax  resins
1372,wedging force
1373,weight substances
1374,wetting behavior
1375,whaledent
1376,whatever computer system
1377,wider varieties
1378,working length
1379,working length control
1380,working surface
1381,worm
1382,wound dressing
1383,wound dressing thats
1384,x ray films
1385,year rates
1386,zinc oxideeugenol
1387,zinc phosphate cement
1388,zoe mixture
1389,zurich il
